%YAML 1.1
%TAG !u! tag:unity3d.com,2011:
--- !u!114 &11400000
MonoBehaviour:
  m_ObjectHideFlags: 0
  m_CorrespondingSourceObject: {fileID: 0}
  m_PrefabInstance: {fileID: 0}
  m_PrefabAsset: {fileID: 0}
  m_GameObject: {fileID: 0}
  m_Enabled: 1
  m_EditorHideFlags: 0
  m_Script: {fileID: 11500000, guid: 5c299d4379bf8ea4ba5a380920db0bef, type: 3}
  m_Name: FireSeed
  m_EditorClassIdentifier: 
  name: Fire Tree
  element: 1
  sapplingImage: {fileID: 4617221072001206613, guid: bdf2a5f36dc1b044683e9e69f3c8a565, type: 3}
  grownImage: {fileID: 3828422865573342341, guid: a2f8be610298e6448acb4b0b8e97b045, type: 3}
  bareImage: {fileID: 5029002332770141559, guid: 4376757b1713f1246bbf6244edac1718, type: 3}
  growTimeInfluence: 0
