%YAML 1.1
%TAG !u! tag:unity3d.com,2011:
--- !u!114 &11400000
MonoBehaviour:
  m_ObjectHideFlags: 0
  m_CorrespondingSourceObject: {fileID: 0}
  m_PrefabInstance: {fileID: 0}
  m_PrefabAsset: {fileID: 0}
  m_GameObject: {fileID: 0}
  m_Enabled: 1
  m_EditorHideFlags: 0
  m_Script: {fileID: 11500000, guid: 73512283aa435dc41b72eda339d2aec9, type: 3}
  m_Name: GroundBase
  m_EditorClassIdentifier: 
  name: Soil
  element: 0
  groundSprite: {fileID: 4960667103909884557, guid: 9a5029c177092b4429ac2b7ba35a2992, type: 3}
  growTimeInfluence: 0
