[api-updater (non-obsolete-error-filter)] 15/05/2021 17:37:33 : Starting C:/Program Files/Unity/Hub/Editor/2020.3.5f1/Editor/Data/Tools/ScriptUpdater/APIUpdater.NonObsoleteApiUpdaterDetector.exe
[api-updater (non-obsolete-error-filter)] 
----------------------------------
jit/startup time      : 451.3845ms
moved types parse time: 47ms
candidates parse time : 0ms
C# parse time         : 217ms
candidates check time : 42ms
console write time    : 0ms

[api-updater (non-obsolete-error-filter)] 15/05/2021 17:37:44 : Starting C:/Program Files/Unity/Hub/Editor/2020.3.5f1/Editor/Data/Tools/ScriptUpdater/APIUpdater.NonObsoleteApiUpdaterDetector.exe
[api-updater (non-obsolete-error-filter)] 
----------------------------------
jit/startup time      : 96.3848ms
moved types parse time: 48ms
candidates parse time : 0ms
C# parse time         : 184ms
candidates check time : 43ms
console write time    : 0ms

[api-updater (non-obsolete-error-filter)] 16/05/2021 21:12:20 : Starting C:/Program Files/Unity/Hub/Editor/2020.3.5f1/Editor/Data/Tools/ScriptUpdater/APIUpdater.NonObsoleteApiUpdaterDetector.exe
[api-updater (non-obsolete-error-filter)] 
----------------------------------
jit/startup time      : 2634.5752ms
moved types parse time: 57ms
candidates parse time : 0ms
C# parse time         : 233ms
candidates check time : 43ms
console write time    : 0ms

[api-updater (non-obsolete-error-filter)] 03/06/2021 17:33:55 : Starting C:/Program Files/Unity/Hub/Editor/2020.3.5f1/Editor/Data/Tools/ScriptUpdater/APIUpdater.NonObsoleteApiUpdaterDetector.exe
[api-updater (non-obsolete-error-filter)] 
----------------------------------
jit/startup time      : 58.3889ms
moved types parse time: 48ms
candidates parse time : 1ms
C# parse time         : 167ms
candidates check time : 25ms
console write time    : 0ms

[api-updater (non-obsolete-error-filter)] 06/06/2021 16:01:13 : Starting C:/Program Files/Unity/Hub/Editor/2020.3.5f1/Editor/Data/Tools/ScriptUpdater/APIUpdater.NonObsoleteApiUpdaterDetector.exe
[api-updater (non-obsolete-error-filter)] 
----------------------------------
jit/startup time      : 657.0303ms
moved types parse time: 55ms
candidates parse time : 1ms
C# parse time         : 243ms
candidates check time : 43ms
console write time    : 0ms

[api-updater (non-obsolete-error-filter)] 06/06/2021 16:01:27 : Starting C:/Program Files/Unity/Hub/Editor/2020.3.5f1/Editor/Data/Tools/ScriptUpdater/APIUpdater.NonObsoleteApiUpdaterDetector.exe
[api-updater (non-obsolete-error-filter)] 
----------------------------------
jit/startup time      : 77.8245ms
moved types parse time: 49ms
candidates parse time : 1ms
C# parse time         : 195ms
candidates check time : 38ms
console write time    : 1ms

[api-updater (non-obsolete-error-filter)] 06/06/2021 16:44:40 : Starting C:/Program Files/Unity/Hub/Editor/2020.3.5f1/Editor/Data/Tools/ScriptUpdater/APIUpdater.NonObsoleteApiUpdaterDetector.exe
[api-updater (non-obsolete-error-filter)] 
----------------------------------
jit/startup time      : 83.8063ms
moved types parse time: 47ms
candidates parse time : 1ms
C# parse time         : 174ms
candidates check time : 43ms
console write time    : 0ms

[api-updater (non-obsolete-error-filter)] 06/06/2021 16:44:49 : Starting C:/Program Files/Unity/Hub/Editor/2020.3.5f1/Editor/Data/Tools/ScriptUpdater/APIUpdater.NonObsoleteApiUpdaterDetector.exe
[api-updater (non-obsolete-error-filter)] 
----------------------------------
jit/startup time      : 91.7514ms
moved types parse time: 47ms
candidates parse time : 1ms
C# parse time         : 187ms
candidates check time : 43ms
console write time    : 0ms

